tests/eyeriss_cocotb.vcd
$date
	Mon Jan  6 11:23:44 2025
$end
$version
	Icarus Verilog
$end
$timescale
	1ps
$end
$scope module pe_array $end
$var wire 16 ! H [15:0] $end
$var wire 5 " R [4:0] $end
$var wire 5 # S [4:0] $end
$var wire 16 $ W [15:0] $end
$var wire 1 % alarm $end
$var wire 1 & clk $end
$var wire 1 ' ld_filt_en $end
$var wire 1 ( ld_ifmap_en $end
$var wire 5 ) p [4:0] $end
$var wire 5 * q [4:0] $end
$var wire 5 + r [4:0] $end
$var wire 5 , t [4:0] $end
$var wire 1 - start $end
$var wire 11 . mux_sel [10:0] $end
$var wire 12 / load3 [11:0] $end
$var wire 12 0 load2 [11:0] $end
$var wire 12 1 load [11:0] $end
$var reg 5 2 add1_ifm [4:0] $end
$var reg 6 3 count_base [5:0] $end
$var reg 6 4 count_col [5:0] $end
$var reg 6 5 count_p [5:0] $end
$var reg 6 6 count_t [5:0] $end
$var reg 1 7 e_out_psum $end
$var reg 6 8 temp_t [5:0] $end
$upscope $end
$scope module pe_array $end
$scope begin ROW[5] $end
$scope begin COL[0] $end
$scope module pe_x_y $end
$var wire 1 & clk $end
$var wire 5 9 filter_width [4:0] $end
$var wire 1 : fsw2 $end
$var wire 5 ; ic [4:0] $end
$var wire 1 < ifw2 $end
$var wire 16 = ipsum [15:0] $end
$var wire 1 > load $end
$var wire 1 ? load2 $end
$var wire 1 @ load3 $end
$var wire 5 A oc [4:0] $end
$var wire 1 - start $end
$var wire 1 B psw $end
$var wire 16 C ipsum_spad_dout [15:0] $end
$var wire 16 D ipsum_spad_din [15:0] $end
$var wire 1 E ifw $end
$var wire 16 F ifmap_spad_dout [15:0] $end
$var wire 16 G ifmap [15:0] $end
$var wire 1 H ifa $end
$var wire 1 I fsw $end
$var wire 16 J filter_spad_dout [15:0] $end
$var wire 16 K filt [15:0] $end
$var wire 16 L f [15:0] $end
$var wire 16 M e [15:0] $end
$var wire 16 N d [15:0] $end
$var wire 1 O complete $end
$var wire 1 P adw2 $end
$var wire 1 Q adw $end
$var wire 1 R M2 $end
$var wire 1 S M1 $end
$var reg 8 T addr_filter [7:0] $end
$var reg 4 U addr_ifmap [3:0] $end
$var reg 5 V addr_ipsum [4:0] $end
$var reg 1 W comp $end
$var reg 1 X comp2 $end
$var reg 1 Y en2 $end
$var reg 16 Z filter_spad_dout_d1 [15:0] $end
$var reg 16 [ ifmap_spad_dout_d1 [15:0] $end
$var reg 16 \ ipsum_spad_dout_d1 [15:0] $end
$var reg 16 ] mux2_control [15:0] $end
$var reg 16 ^ opsum [15:0] $end
$var reg 16 _ r6 [15:0] $end
$var reg 16 ` tempo [15:0] $end
$upscope $end
$upscope $end
$upscope $end
$upscope $end
$enddefinitions $end
#0
$dumpvars
b0 `
bx _
b0 ^
b0 ]
bx \
bx [
bx Z
0Y
xX
0W
bx V
bx U
bx T
0S
0R
0Q
0P
0O
bx N
bx M
bx L
bx K
bx J
0I
0H
bx G
bx F
0E
bx D
bx C
0B
b11 A
0@
0?
0>
b0 =
0<
b10 ;
0:
b11 9
b0 8
07
b0 6
b0 5
b0 4
b111111 3
b0 2
b0 1
b0 0
b0 /
b100000 .
x-
b10 ,
b10 +
b10 *
b11 )
0(
0'
1&
0%
b101 $
b11 #
b11 "
b101 !
$end
#5000
b0 V
b0 T
b0 U
1:
b0 L
1'
1R
1I
1E
1@
1>
b111111111111 /
b111111111111 1
1%
0X
0&
#10000
b1000001101001011 K
1&
#15000
b1 U
b1 T
b0 _
0&
#20000
b111011100101100 K
1&
#25000
b10 U
b10 T
0&
#30000
17
b1011001100110 K
1&
#35000
b11 U
b11 T
0&
#40000
b1010110001000 K
b1 4
b10 6
b1100 8
b11000 5
1&
#45000
b100 U
b100 T
0&
#50000
b10 4
b11000 5
b10 6
b1100 8
b1001000001100011 K
1&
#55000
b101 U
b101 T
0&
#60000
b0 3
07
b1011100100111110 K
b0 4
b11000 5
b10 6
b1100 8
1&
#65000
b110 U
b110 T
0&
#70000
b1011010011100010 K
1&
#75000
b111 U
b111 T
0&
#80000
b1000100101101100 K
1&
#85000
b1000 U
b1000 T
0&
#90000
b111011001011111 K
1&
#95000
b1001 U
b1001 T
0&
#100000
b1001110000001110 K
1&
#105000
b1010 U
b1010 T
0&
#110000
b11011111010 K
1&
#115000
b1011 U
b1011 T
0&
#120000
b101111001101000 K
1&
#125000
b1100 U
b1100 T
0&
#130000
b100010100001100 K
1&
#135000
b1011 U
1Y
b1101 T
0&
#140000
b1001000 K
1&
#145000
b1010 U
b1110 T
0&
#150000
b100000101110011 K
1&
#155000
b1001 U
b1111 T
0&
#160000
b1110011101001101 K
1&
#165000
b1000 U
b10000 T
0&
#170000
b1011001011011101 K
1&
#175000
b111 U
b10001 T
0&
#180000
b1101000010000010 K
1&
#185000
b110 U
b10010 T
0&
#190000
b10111011101 K
1&
#195000
1(
0'
0:
b111 0
0@
b0 /
b101 U
b10011 T
0&
#200000
b0 G
1&
#205000
b100 U
b10100 T
0&
#210000
1&
#215000
b11 U
b10101 T
0&
#220000
1&
#225000
b10 U
b10110 T
0&
#230000
1&
#235000
b1 U
b10111 T
0&
#240000
1&
#245000
b0 U
b11000 T
0&
#250000
1&
#255000
0Y
1<
1?
b111000 0
b0 U
b0 T
0&
#260000
b1000110101100101 G
1&
#265000
b1000001101001011 J
b1 U
b1 T
0&
#270000
b10001111100010 G
1&
#275000
b10 U
b10 T
b1000001101001011 Z
b111011100101100 J
0&
#280000
b1001110010100011 G
1&
#285000
b1011001100110 J
b111011100101100 Z
b11 U
b11 T
0&
#290000
b111001100111010 G
1&
#295000
b100 U
b100 T
b1011001100110 Z
b1010110001000 J
0&
#300000
b1100110110010011 G
1&
#305000
b1001000001100011 J
b1010110001000 Z
b101 U
b101 T
0&
#310000
b10111101000111 G
1&
#315000
0<
0?
b111000000 0
b110 U
b110 T
b1001000001100011 Z
b1011100100111110 J
0&
#320000
b0 G
1&
#325000
b1011010011100010 J
b1011100100111110 Z
b111 U
b111 T
0&
#330000
1&
#335000
b1000 U
b1000 T
b1011010011100010 Z
b1000100101101100 J
0&
#340000
1&
#345000
b111011001011111 J
b1000100101101100 Z
b1001 U
b1001 T
0&
#350000
1&
#355000
b1010 U
b1010 T
b111011001011111 Z
b1001110000001110 J
0&
#360000
1&
#365000
b11011111010 J
b1001110000001110 Z
b1011 U
b1011 T
0&
#370000
1&
#375000
b111000000000 0
b1100 U
b1100 T
b11011111010 Z
b101111001101000 J
0&
#380000
1&
#385000
b100010100001100 J
b101111001101000 Z
b1011 U
1Y
b1101 T
0&
#390000
1&
#395000
b1010 U
b1110 T
b100010100001100 Z
b1001000 J
0&
#400000
1&
#405000
b100000101110011 J
b1001000 Z
b1001 U
b1111 T
0&
#410000
1&
#415000
b1000 U
b10000 T
b100000101110011 Z
b1110011101001101 J
0&
#420000
1&
#425000
b1011001011011101 J
b1110011101001101 Z
b111 U
b10001 T
0&
#430000
1&
#435000
b1 2
b1 ]
bx L
0R
1B
0I
0E
0>
0(
b0 1
1-
b0 0
b0 U
b0 T
b1011001011011101 Z
b1101000010000010 J
0&
#440000
1&
#445000
0B
b1000110101100101 F
b1000001101001011 J
bx _
b1101000010000010 Z
0&
#450000
1&
#455000
b0 L
1R
b1000001101001011 Z
b1000110101100101 [
0&
#460000
1&
#465000
b1 T
bx L
0R
1Q
b1101110010111 D
b1101110010111 M
b1101110010111 N
b0 _
0&
#470000
1&
#475000
b1 V
0Q
1B
bx D
bx _
b111011100101100 J
0&
#480000
1&
#485000
0B
b111011100101100 Z
0&
#490000
1&
#495000
b0 L
b100000001011100 M
1R
b100000001011100 N
0&
#500000
1&
#505000
b10 T
bx L
0R
1Q
b100000001011100 D
b0 _
0&
#510000
1&
#515000
b10 V
0Q
1B
bx D
bx _
b1011001100110 J
0&
#520000
1&
#525000
0B
b1011001100110 Z
0&
#530000
1&
#535000
b0 L
b10000111110 M
1R
b10000111110 N
0&
#540000
1&
#545000
b1 U
b11 T
bx L
0R
1H
1Q
b10000111110 D
b0 _
0&
#550000
1&
#555000
b0 V
0H
0Q
1B
bx D
bx _
b1010110001000 J
b10001111100010 F
0&
#560000
1&
#565000
0B
b1101110010111 C
b1010110001000 Z
b10001111100010 [
0&
#570000
1&
#575000
b1101110010111 L
b1001101000010000 M
b1101110010111 \
b1001101000010000 N
0&
#580000
1&
#585000
b100 T
1Q
b1011010110100111 D
b1101110010111 _
0&
#590000
1&
#595000
b1 V
0Q
1B
b1001000001100011 J
0&
#600000
1&
#605000
0B
b100000001011100 C
b1001000001100011 Z
0&
#610000
1&
#615000
b100000001011100 L
b1101111111101 D
b1100110 M
b100000001011100 \
b1100110 N
0&
#620000
1&
#625000
b101 T
1Q
b100000011000010 D
b100000001011100 _
0&
#630000
1&
#635000
b10 V
0Q
1B
b1011100100111110 J
0&
#640000
1&
#645000
0B
b10000111110 C
b1011100100111110 Z
0&
#650000
1&
#655000
b10000111110 L
b100001100011000 D
b1010111100 M
b10000111110 \
b1010111100 N
0&
#660000
1&
#665000
b10 U
b110 T
1H
1Q
b11011111010 D
b10000111110 _
0&
#670000
1&
#675000
b0 V
0H
0Q
1B
b1011010011100010 J
b1001110010100011 F
0&
#680000
1&
#685000
0B
b1011010110100111 C
b1011010011100010 Z
b1001110010100011 [
0&
#690000
1&
#695000
b1011010110100111 L
b1110100000100100 D
b1110001111100110 M
b1011010110100111 \
b1110001111100110 N
0&
#700000
1&
#705000
b111 T
1Q
b1001100110001101 D
b1011010110100111 _
0&
#710000
1&
#715000
b1 V
0Q
1B
b1000100101101100 J
0&
#720000
1&
#725000
0B
b100000011000010 C
b1000100101101100 Z
0&
#730000
1&
#735000
b100000011000010 L
b10101101011 D
b100111111000100 M
b100000011000010 \
b100111111000100 N
0&
#740000
1&
#745000
b1000 T
1Q
b1001000010000110 D
b100000011000010 _
0&
#750000
1&
#755000
b10 V
0Q
1B
b111011001011111 J
0&
#760000
1&
#765000
0B
b11011111010 C
b111011001011111 Z
0&
#770000
1&
#775000
b11011111010 L
b1000001100111111 D
b100001001111101 M
b11011111010 \
b100001001111101 N
0&
#780000
1&
#785000
b11 U
b1001 T
1H
1Q
b100100101110111 D
b11011111010 _
0&
#790000
1&
#795000
b0 V
0H
0Q
1B
b1001110000001110 J
b111001100111010 F
0&
#800000
1&
#805000
0B
b1001100110001101 C
b1001110000001110 Z
b111001100111010 [
0&
#810000
1&
#815000
b1001100110001101 L
b1010110000100110 D
b1010010100101100 M
b1001100110001101 \
b1010010100101100 N
0&
#820000
1&
#825000
b1010 T
1Q
b11111010111001 D
b1001100110001101 _
0&
#830000
1&
#835000
b1 V
0Q
1B
b11011111010 J
0&
#840000
1&
#845000
0B
b1001000010000110 C
b11011111010 Z
0&
#850000
1&
#855000
b1001000010000110 L
b111110000110001 D
b1110001010100100 M
b1001000010000110 \
b1110001010100100 N
0&
#860000
1&
#865000
b1011 T
1Q
b111001100101010 D
b1001000010000110 _
0&
#870000
1&
#875000
b10 V
0Q
1B
b101111001101000 J
0&
#880000
1&
#885000
0B
b100100101110111 C
b101111001101000 Z
0&
#890000
1&
#895000
b100100101110111 L
b1010110000010110 D
b1101110010000 M
b100100101110111 \
b1101110010000 N
0&
#900000
1&
#905000
b100 U
b1100 T
1H
1Q
b110010100000111 D
b100100101110111 _
0&
#910000
1&
#915000
b0 V
0H
0Q
1B
b100010100001100 J
b1100110110010011 F
0&
#920000
1&
#925000
0B
b11111010111001 C
b100010100001100 Z
b1100110110010011 [
0&
#930000
1&
#935000
b11111010111001 L
b1000101101011011 D
b100000111100100 M
b11111010111001 \
b100000111100100 N
0&
#940000
1&
#945000
b1101 T
1Q
b1000000010011101 D
b11111010111001 _
0&
#950000
1&
#955000
b1 V
0Q
1B
b1001000 J
0&
#960000
1&
#965000
0B
b111001100101010 C
b1001000 Z
0&
#970000
1&
#975000
b111001100101010 L
b1000000010001 D
b1101000101011000 M
b111001100101010 \
b1101000101011000 N
0&
#980000
1&
#985000
b1110 T
1Q
b100010010000010 D
b111001100101010 _
0&
#990000
1&
#995000
b10 V
0Q
1B
b100000101110011 J
0&
#1000000
1&
#1005000
0B
b110010100000111 C
b100000101110011 Z
0&
#1010000
1&
#1015000
b110010100000111 L
b1111100110011 D
b1010110000001001 M
b110010100000111 \
b1010110000001001 N
0&
#1020000
1&
#1025000
b101 U
b1111 T
1H
1Q
b1000100010000 D
b110010100000111 _
0&
#1030000
1&
#1035000
b0 V
0H
0Q
1B
b1110011101001101 J
b10111101000111 F
0&
#1040000
1&
#1045000
0B
b1000000010011101 C
b1110011101001101 Z
b10111101000111 [
0&
#1050000
1&
#1055000
b1000000010011101 L
b1010111001100010 D
b100100101011011 M
b1000000010011101 \
b100100101011011 N
0&
#1060000
1&
#1065000
b10000 T
1Q
b1100100111111000 D
b1000000010011101 _
0&
#1070000
1&
#1075000
b1 V
0Q
1B
b1011001011011101 J
0&
#1080000
1&
#1085000
0B
b100010010000010 C
b1011001011011101 Z
0&
#1090000
1&
#1095000
b100010010000010 L
b1010111011101000 D
b10111001001011 M
b100010010000010 \
b10111001001011 N
0&
#1100000
1&
#1105000
b10001 T
1Q
b111001011001101 D
b100010010000010 _
0&
#1110000
1&
#1115000
b10 V
0Q
1B
b1101000010000010 J
0&
#1120000
1&
#1125000
0B
b1000100010000 C
b1101000010000010 Z
0&
#1130000
1&
#1135000
b1000100010000 L
b1111011010010000 D
b1011001000001110 M
b1000100010000 \
b1011001000001110 N
0&
#1140000
1&
#1145000
b110 U
b10010 T
1H
1Q
b1100001100011110 D
b1000100010000 _
0&
#1150000
1&
#1155000
b0 T
b0 U
1W
b0 L
1R
1I
1E
0Y
1(
1>
b111 0
b0 V
b111111111111 1
0-
1O
0H
0Q
0B
b10111011101 J
bx F
0&
#1160000
1&
#1165000
0O
b1000110101100101 F
b1000001101001011 J
b1100100111111000 C
b1011001000001110 D
b0 _
b10111011101 Z
bx [
1X
b1 V
b1 U
b1 T
0&
#1170000
b1100100111111000 ^
b1100100111111000 `
1&
#1175000
bx D
bx M
b10 U
b10 T
b10 V
b1100100111111000 \
b1000001101001011 Z
b1000110101100101 [
bx N
b111001011001101 C
b111011100101100 J
b10001111100010 F
0&
#1180000
b111001011001101 ^
b111001011001101 `
1&
#1185000
b1101110010111 D
b1101110010111 M
b1001110010100011 F
b1011001100110 J
b1100001100011110 C
b1101110010111 N
b111001011001101 \
b111011100101100 Z
b10001111100010 [
0W
b11 U
b11 T
0&
#1190000
b1100001100011110 ^
b1100001100011110 `
1&
#1195000
b11100011011000 D
b11100011011000 M
b100 U
b100 T
0X
b1100001100011110 \
b1011001100110 Z
b1001110010100011 [
b11100011011000 N
b1010110001000 J
b111001100111010 F
0&
#1200000
17
1&
#1205000
b110101011110010 D
b110101011110010 M
b1100110110010011 F
b1001000001100011 J
b110101011110010 N
b1010110001000 Z
b111001100111010 [
b101 U
b101 T
0&
#1210000
b1 4
b11000 5
b10 6
b1100 8
1&
#1215000
b0 V
1<
1?
b111000 0
b1111100011010000 D
b1111100011010000 M
b0 U
b0 T
b1001000001100011 Z
b1100110110010011 [
b1111100011010000 N
b1011100100111110 J
b10111101000111 F
0&
#1220000
b1001110010100011 G
b10 4
b11000 5
b10 6
b1100 8
1&
#1225000
b10111111011001 D
b10111111011001 M
b1000001101001011 J
b1100100111111000 C
b10111111011001 N
b1011100100111110 Z
b10111101000111 [
b1 U
b1 T
0&
#1230000
b1 3
07
b0 4
b11000 5
b10 6
b1100 8
b111001100111010 G
1&
#1235000
b1100001000110010 D
b1100001000110010 M
b10 U
b10 T
b1100100111111000 \
b1000001101001011 Z
b1100001000110010 N
b111011100101100 J
0&
#1240000
b1100110110010011 G
1&
#1245000
b10111011001101 D
b10111011001101 M
b1011001100110 J
b10111011001101 N
b111011100101100 Z
b11 U
b11 T
0&
#1250000
b10111101000111 G
1&
#1255000
b10000100110100 D
b10000100110100 M
b100 U
b100 T
b1011001100110 Z
b10000100110100 N
b1010110001000 J
0&
#1260000
b110111101100101 G
1&
#1265000
b1111000001001010 D
b1111000001001010 M
b1001000001100011 J
b1111000001001010 N
b1010110001000 Z
b101 U
b101 T
0&
#1270000
b1001100010100 G
1&
#1275000
0<
0?
b111000000 0
b1111000010111000 D
b1111000010111000 M
b110 U
b110 T
b1001000001100011 Z
b1111000010111000 N
b1011100100111110 J
0&
#1280000
b0 G
1&
#1285000
b11100001110101 D
b11100001110101 M
bx F
b1011010011100010 J
b11100001110101 N
b1011100100111110 Z
b111 U
b111 T
0&
#1290000
1&
#1295000
b1100001000110010 D
b1100001000110010 M
b1000 U
b1000 T
b1011010011100010 Z
bx [
b1100001000110010 N
b1000100101101100 J
0&
#1300000
1&
#1305000
bx D
bx M
b111011001011111 J
bx N
b1000100101101100 Z
b1001 U
b1001 T
0&
#1310000
1&
#1315000
b1010 U
b1010 T
b111011001011111 Z
b1001110000001110 J
0&
#1320000
1&
#1325000
b11011111010 J
b1001110000001110 Z
b1011 U
b1011 T
0&
#1330000
1&
#1335000
b111000000000 0
b1100 U
b1100 T
b11011111010 Z
b101111001101000 J
0&
#1340000
1&
#1345000
b100010100001100 J
b101111001101000 Z
b1011 U
1Y
b1101 T
0&
#1350000
1&
#1355000
b1010 U
b1110 T
b100010100001100 Z
b1001000 J
0&
#1360000
1&
#1365000
b100000101110011 J
b1001000 Z
b1001 U
b1111 T
0&
#1370000
1&
#1375000
b1000 U
b10000 T
b100000101110011 Z
b1110011101001101 J
0&
#1380000
1&
#1385000
b1011001011011101 J
b1110011101001101 Z
b111 U
b10001 T
0&
#1390000
1&
#1395000
b10 2
b10 ]
b1100100111111000 L
0R
1B
0I
0E
0>
0(
b0 1
1-
b0 0
b0 U
b0 T
b1011001011011101 Z
b1101000010000010 J
0&
#1400000
1&
#1405000
0B
b1001110010100011 F
b1000001101001011 J
b1100100111111000 _
b1101000010000010 Z
0&
#1410000
1&
#1415000
b0 L
1R
b1000001101001011 Z
b1001110010100011 [
0&
#1420000
1&
#1425000
b1 T
b1100100111111000 L
0R
1Q
b100110011000001 D
b100110011000001 M
b100110011000001 N
b0 _
0&
#1430000
1&
#1435000
b1 V
1P
0Q
1B
b1011010111001 D
b1100100111111000 _
b111011100101100 J
0&
#1440000
0P
1&
#1445000
0B
b111001011001101 C
b111011100101100 Z
0&
#1450000
1&
#1455000
b0 L
b111101011111100 D
b1011000100000100 M
1R
b111001011001101 \
b1011000100000100 N
0&
#1460000
1&
#1465000
b10 T
b111001011001101 L
0R
1Q
b1011000100000100 D
b0 _
0&
#1470000
1&
#1475000
b10 V
1P
0Q
1B
b10001111010001 D
b111001011001101 _
b1011001100110 J
0&
#1480000
0P
1&
#1485000
0B
b1100001100011110 C
b1011001100110 Z
0&
#1490000
1&
#1495000
b0 L
b1101110110111111 D
b110101011110010 M
1R
b1100001100011110 \
b110101011110010 N
0&
#1500000
1&
#1505000
b1 U
b11 T
b1100001100011110 L
0R
1H
1Q
b110101011110010 D
b0 _
0&
#1510000
1&
#1515000
b0 V
0H
1P
0Q
1B
b10111000010000 D
b1100001100011110 _
b1010110001000 J
b111001100111010 F
0&
#1520000
0P
1&
#1525000
0B
b100110011000001 C
b1010110001000 Z
b111001100111010 [
0&
#1530000
1&
#1535000
b100110011000001 L
b1011101111101110 D
b1111100011010000 M
b100110011000001 \
b1111100011010000 N
0&
#1540000
1&
#1545000
b100 T
1Q
b100010110010001 D
b100110011000001 _
0&
#1550000
1&
#1555000
b1 V
1P
0Q
1B
b1001000001100011 J
0&
#1560000
0P
1&
#1565000
0B
b1011000100000100 C
b1001000001100011 Z
0&
#1570000
1&
#1575000
b1011000100000100 L
b111110000101111 D
b10111101101110 M
b1011000100000100 \
b10111101101110 N
0&
#1580000
1&
#1585000
b101 T
1Q
b1110000001110010 D
b1011000100000100 _
0&
#1590000
1&
#1595000
b10 V
1P
0Q
1B
b1011100100111110 J
0&
#1600000
0P
1&
#1605000
0B
b110101011110010 C
b1011100100111110 Z
0&
#1610000
1&
#1615000
b110101011110010 L
b1000001100010000 D
b1101001000001100 M
b110101011110010 \
b1101001000001100 N
0&
#1620000
1&
#1625000
b10 U
b110 T
1H
1Q
b11110011111110 D
b110101011110010 _
0&
#1630000
1&
#1635000
b0 V
0H
1P
0Q
1B
b1011010011100010 J
b1100110110010011 F
0&
#1640000
0P
1&
#1645000
0B
b100010110010001 C
b1011010011100010 Z
b1100110110010011 [
0&
#1650000
1&
#1655000
b100010110010001 L
b100001010111000 D
b1101011111000110 M
b100010110010001 \
b1101011111000110 N
0&
#1660000
1&
#1665000
b111 T
1Q
b1110101010111 D
b100010110010001 _
0&
#1670000
1&
#1675000
b1 V
1P
0Q
1B
b1000100101101100 J
0&
#1680000
0P
1&
#1685000
0B
b1110000001110010 C
b1000100101101100 Z
0&
#1690000
1&
#1695000
b1110000001110010 L
b1010101010010101 D
b110010100000100 M
b1110000001110010 \
b110010100000100 N
0&
#1700000
1&
#1705000
b1000 T
1Q
b100010101110110 D
b1110000001110010 _
0&
#1710000
1&
#1715000
b10 V
1P
0Q
1B
b111011001011111 J
0&
#1720000
0P
1&
#1725000
0B
b11110011111110 C
b111011001011111 Z
0&
#1730000
1&
#1735000
b11110011111110 L
b1110101111111111 D
b101110001101 M
b11110011111110 \
b101110001101 N
0&
#1740000
1&
#1745000
b11 U
b1001 T
1H
1Q
b100100010001011 D
b11110011111110 _
0&
#1750000
1&
#1755000
b0 V
0H
1P
0Q
1B
b1001110000001110 J
b10111101000111 F
0&
#1760000
0P
1&
#1765000
0B
b1110101010111 C
b1001110000001110 Z
b10111101000111 [
0&
#1770000
1&
#1775000
b1110101010111 L
b1011011100000 D
b1101100111100010 M
b1110101010111 \
b1101100111100010 N
0&
#1780000
1&
#1785000
b1010 T
1Q
b1111011100111001 D
b1110101010111 _
0&
#1790000
1&
#1795000
b1 V
1P
0Q
1B
b11011111010 J
0&
#1800000
0P
1&
#1805000
0B
b100010101110110 C
b11011111010 Z
0&
#1810000
1&
#1815000
b100010101110110 L
b1111001010101101 D
b1101010101010110 M
b100010101110110 \
b1101010101010110 N
0&
#1820000
1&
#1825000
b1011 T
1Q
b1101011001100 D
b100010101110110 _
0&
#1830000
1&
#1835000
b10 V
1P
0Q
1B
b101111001101000 J
0&
#1840000
0P
1&
#1845000
0B
b100100010001011 C
b101111001101000 Z
0&
#1850000
1&
#1855000
b100100010001011 L
b1000110001001110 D
b100011011011000 M
b100100010001011 \
b100011011011000 N
0&
#1860000
1&
#1865000
b100 U
b1100 T
1H
1Q
b1000111101100011 D
b100100010001011 _
0&
#1870000
1&
#1875000
b0 V
0H
1P
0Q
1B
b100010100001100 J
b110111101100101 F
0&
#1880000
0P
1&
#1885000
0B
b1111011100111001 C
b100010100001100 Z
b110111101100101 [
0&
#1890000
1&
#1895000
b1111011100111001 L
b1011101001000111 D
b111000110111100 M
b1111011100111001 \
b111000110111100 N
0&
#1900000
1&
#1905000
b1101 T
1Q
b110100011110101 D
b1111011100111001 _
0&
#1910000
1&
#1915000
b1 V
1P
0Q
1B
b1001000 J
0&
#1920000
0P
1&
#1925000
0B
b1101011001100 C
b1001000 Z
0&
#1930000
1&
#1935000
b1101011001100 L
b100101110100001 D
b101010001101000 M
b1101011001100 \
b101010001101000 N
0&
#1940000
1&
#1945000
b1110 T
1Q
b110111100110100 D
b1101011001100 _
0&
#1950000
1&
#1955000
b10 V
1P
0Q
1B
b100000101110011 J
0&
#1960000
0P
1&
#1965000
0B
b1000111101100011 C
b100000101110011 Z
0&
#1970000
1&
#1975000
b1000111101100011 L
b1100101000101011 D
b1010111101011111 M
b1000111101100011 \
b1010111101011111 N
0&
#1980000
1&
#1985000
b101 U
b1111 T
1H
1Q
b11111011000010 D
b1000111101100011 _
0&
#1990000
1&
#1995000
b0 V
0H
1P
0Q
1B
b1110011101001101 J
b1001100010100 F
0&
#2000000
0P
1&
#2005000
0B
b110100011110101 C
b1110011101001101 Z
b1001100010100 [
0&
#2010000
1&
#2015000
b110100011110101 L
b101100001100111 D
b1100100100000100 M
b110100011110101 \
b1100100100000100 N
0&
#2020000
1&
#2025000
b10000 T
1Q
b11000111111001 D
b110100011110101 _
0&
#2030000
1&
#2035000
b1 V
1P
0Q
1B
b1011001011011101 J
0&
#2040000
0P
1&
#2045000
0B
b110111100110100 C
b1011001011011101 Z
0&
#2050000
1&
#2055000
b110111100110100 L
b1100100100111001 D
b110000001000100 M
b110111100110100 \
b110000001000100 N
0&
#2060000
1&
#2065000
b10001 T
1Q
b1100111101111000 D
b110111100110100 _
0&
#2070000
1&
#2075000
b10 V
1P
0Q
1B
b1101000010000010 J
0&
#2080000
0P
1&
#2085000
0B
b11111011000010 C
b1101000010000010 Z
0&
#2090000
1&
#2095000
b11111011000010 L
b101111101011100 D
b1111000000101000 M
b11111011000010 \
b1111000000101000 N
0&
#2100000
1&
#2105000
b110 U
b10010 T
1H
1Q
b10111011101010 D
b11111011000010 _
0&
#2110000
1&
#2115000
b0 T
b0 U
1W
b0 L
1R
1I
1E
0Y
1(
1>
b111 0
b0 V
b111111111111 1
0-
1O
0H
0P
0Q
0B
b10111011101 J
bx F
0&
#2120000
1&
#2125000
0O
b1001110010100011 F
b1000001101001011 J
b11000111111001 C
b1111000000101000 D
b0 _
b10111011101 Z
bx [
1X
b1 V
b1 U
b1 T
0&
#2130000
b11000111111001 ^
b11000111111001 `
1&
#2135000
bx D
bx M
b10 U
b10 T
b10 V
b11000111111001 \
b1000001101001011 Z
b1001110010100011 [
bx N
b1100111101111000 C
b111011100101100 J
b111001100111010 F
0&
#2140000
b1100111101111000 ^
b1100111101111000 `
1&
#2145000
b100110011000001 D
b100110011000001 M
b1100110110010011 F
b1011001100110 J
b10111011101010 C
b100110011000001 N
b1100111101111000 \
b111011100101100 Z
b111001100111010 [
0W
b11 U
b11 T
0&
#2150000
b10111011101010 ^
b10111011101010 `
1&
#2155000
b1100001111111000 D
b1100001111111000 M
b100 U
b100 T
0X
b10111011101010 \
b1011001100110 Z
b1100110110010011 [
b1100001111111000 N
b1010110001000 J
b10111101000111 F
0&
#2160000
17
1&
#2165000
b1000101010010010 D
b1000101010010010 M
b110111101100101 F
b1001000001100011 J
b1000101010010010 N
b1010110001000 Z
b10111101000111 [
b101 U
b101 T
0&
#2170000
b1 4
b11000 5
b10 6
b1100 8
1&
#2175000
b0 V
1<
1?
b111000 0
b1111000010111000 D
b1111000010111000 M
b0 U
b0 T
b1001000001100011 Z
b110111101100101 [
b1111000010111000 N
b1011100100111110 J
b1001100010100 F
0&
#2180000
b1100110110010011 G
b10 4
b11000 5
b10 6
b1100 8
1&
#2185000
b1110010000001111 D
b1110010000001111 M
b1000001101001011 J
b11000111111001 C
b1110010000001111 N
b1011100100111110 Z
b1001100010100 [
b1 U
b1 T
0&
#2190000
b10 3
07
b0 4
b11000 5
b10 6
b1100 8
b10111101000111 G
1&
#2195000
b1001011011000 D
b1001011011000 M
b10 U
b10 T
b11000111111001 \
b1000001101001011 Z
b1001011011000 N
b111011100101100 J
0&
#2200000
b110111101100101 G
1&
#2205000
b1101001011011100 D
b1101001011011100 M
b1011001100110 J
b1101001011011100 N
b111011100101100 Z
b11 U
b11 T
0&
#2210000
b1001100010100 G
1&
#2215000
b1001001101110000 D
b1001001101110000 M
b100 U
b100 T
b1011001100110 Z
b1001001101110000 N
b1010110001000 J
0&
#2220000
b110111010110111 G
1&
#2225000
b101000111111000 D
b101000111111000 M
b1001000001100011 J
b101000111111000 N
b1010110001000 Z
b101 U
b101 T
0&
#2230000
b1010001101001010 G
1&
#2235000
0<
0?
b111000000 0
b1100011010100000 D
b1100011010100000 M
b110 U
b110 T
b1001000001100011 Z
b1100011010100000 N
b1011100100111110 J
0&
#2240000
b0 G
1&
#2245000
b1010000010111100 D
b1010000010111100 M
bx F
b1011010011100010 J
b1010000010111100 N
b1011100100111110 Z
b111 U
b111 T
0&
#2250000
1&
#2255000
b1001011011000 D
b1001011011000 M
b1000 U
b1000 T
b1011010011100010 Z
bx [
b1001011011000 N
b1000100101101100 J
0&
#2260000
1&
#2265000
bx D
bx M
b111011001011111 J
bx N
b1000100101101100 Z
b1001 U
b1001 T
0&
#2270000
1&
#2275000
b1010 U
b1010 T
b111011001011111 Z
b1001110000001110 J
0&
#2280000
1&
#2285000
b11011111010 J
b1001110000001110 Z
b1011 U
b1011 T
0&
#2290000
1&
#2295000
b111000000000 0
b1100 U
b1100 T
b11011111010 Z
b101111001101000 J
0&
#2300000
1&
#2305000
b100010100001100 J
b101111001101000 Z
b1011 U
1Y
b1101 T
0&
#2310000
1&
#2315000
b1010 U
b1110 T
b100010100001100 Z
b1001000 J
0&
#2320000
1&
#2325000
b100000101110011 J
b1001000 Z
b1001 U
b1111 T
0&
#2330000
1&
#2335000
b1000 U
b10000 T
b100000101110011 Z
b1110011101001101 J
0&
#2340000
1&
#2345000
b1011001011011101 J
b1110011101001101 Z
b111 U
b10001 T
0&
#2350000
1&
#2355000
b11 2
b11 ]
b11000111111001 L
0R
1B
0I
0E
0>
0(
b0 1
1-
b0 0
b0 U
b0 T
b1011001011011101 Z
b1101000010000010 J
0&
#2360000
1&
#2365000
0B
b1100110110010011 F
b1000001101001011 J
b11000111111001 _
b1101000010000010 Z
0&
#2370000
1&
#2375000
b0 L
1R
b1000001101001011 Z
b1100110110010011 [
0&
#2380000
1&
#2385000
b1 T
b11000111111001 L
0R
1Q
b111001100010001 D
b111001100010001 M
b111001100010001 N
b0 _
0&
#2390000
1&
#2395000
b1 V
1P
0Q
1B
b1010010100001010 D
b11000111111001 _
b111011100101100 J
0&
#2400000
0P
1&
#2405000
0B
b1100111101111000 C
b111011100101100 Z
0&
#2410000
1&
